{
  "photos": {
    "page": 1,
    "pages": 200,
    "perpage": 5,
    "total": 1000,
    "photo": [
      {
        "id": "33630091440",
        "owner": "60048834@N05",
        "secret": "9ab0130c21",
        "server": "2860",
        "farm": 3,
        "title": "",
        "ispublic": 1,
        "isfriend": 0,
        "isfamily": 0,
        "datetaken": "2017-04-13 09:30:19",
        "datetakengranularity": 0,
        "datetakenunknown": "1",
        "ownername": "American_Scouser",
        "count_faves": "0",
        "count_comments": "1",
        "url_n": "https://farm3.staticflickr.com/2860/33630091440_9ab0130c21_n.jpg",
        "height_n": 320,
        "width_n": "320"
      },
      {
        "id": "33858153942",
        "owner": "133253270@N06",
        "secret": "bbc544c4d4",
        "server": "3934",
        "farm": 4,
        "title": "Jardí Botanic Mar Murta Blanes 12/04/17",
        "ispublic": 1,
        "isfriend": 0,
        "isfamily": 0,
        "datetaken": "2017-04-13 09:30:18",
        "datetakengranularity": 0,
        "datetakenunknown": "1",
        "ownername": "Maria Teresa Griño",
        "count_faves": "0",
        "count_comments": "1",
        "url_n": "https://farm4.staticflickr.com/3934/33858153942_bbc544c4d4_n.jpg",
        "height_n": 180,
        "width_n": "320",
        "url_c": "https://farm4.staticflickr.com/3934/33858153942_bbc544c4d4_c.jpg",
        "height_c": 451,
        "width_c": "800"
      },
      {
        "id": "33885899951",
        "owner": "98671670@N08",
        "secret": "401201fc9b",
        "server": "2828",
        "farm": 3,
        "title": "I can't let #Rome pass without a colonnade perspective shot.",
        "ispublic": 1,
        "isfriend": 0,
        "isfamily": 0,
        "datetaken": "2017-04-13 09:30:17",
        "datetakengranularity": 0,
        "datetakenunknown": "1",
        "ownername": "simon_male",
        "count_faves": "0",
        "count_comments": "0",
        "url_n": "https://farm3.staticflickr.com/2828/33885899951_401201fc9b_n.jpg",
        "height_n": 320,
        "width_n": "320",
        "url_c": "https://farm3.staticflickr.com/2828/33885899951_401201fc9b_c.jpg",
        "height_c": 800,
        "width_c": "800"
      },
      {
        "id": "33885900611",
        "owner": "149067543@N06",
        "secret": "70b21f2103",
        "server": "2931",
        "farm": 3,
        "title": "Mary",
        "ispublic": 1,
        "isfriend": 0,
        "isfamily": 0,
        "datetaken": "2017-02-11 15:29:23",
        "datetakengranularity": "0",
        "datetakenunknown": "0",
        "ownername": "patrickmccoy3",
        "count_faves": "0",
        "count_comments": "0",
        "url_n": "https://farm3.staticflickr.com/2931/33885900611_70b21f2103_n.jpg",
        "height_n": "320",
        "width_n": 240,
        "url_c": "https://farm3.staticflickr.com/2931/33885900611_70b21f2103_c.jpg",
        "height_c": "800",
        "width_c": 600
      },
      {
        "id": "34015676705",
        "owner": "40092760@N02",
        "secret": "f7e1c4323a",
        "server": "3939",
        "farm": 4,
        "title": "DSC_0066",
        "ispublic": 1,
        "isfriend": 0,
        "isfamily": 0,
        "datetaken": "2017-04-12 22:26:32",
        "datetakengranularity": "0",
        "datetakenunknown": "0",
        "ownername": "CrumbBums",
        "count_faves": "0",
        "count_comments": "0",
        "url_n": "https://farm4.staticflickr.com/3939/34015676705_f7e1c4323a_n.jpg",
        "height_n": "320",
        "width_n": 213,
        "url_c": "https://farm4.staticflickr.com/3939/34015676705_f7e1c4323a_c.jpg",
        "height_c": "800",
        "width_c": 531
      }
    ]
  },
  "stat": "ok"
}