{
  "photos": {
    "page": 1,
    "pages": 94516,
    "perpage": 5,
    "total": "1417739",
    "photo": [{
      "id": "4695567450",
      "owner": "8764442@N07",
      "secret": "4329f570ec",
      "server": "1268",
      "farm": 2,
      "title": "android",
      "ispublic": 1,
      "isfriend": 0,
      "isfamily": 0,
      "datetaken": "2010-06-13 06:21:50",
      "datetakengranularity": "0",
      "datetakenunknown": 0,
      "ownername": "osde8info",
      "count_faves": "1",
      "count_comments": "0",
      "url_n": "https://farm2.staticflickr.com/1268/4695567450_4329f570ec_n.jpg",
      "height_n": 214,
      "width_n": "320"
    }, {
      "id": "4695568154",
      "owner": "8764442@N07",
      "secret": "106edd9745",
      "server": "4032",
      "farm": 5,
      "title": "android",
      "ispublic": 1,
      "isfriend": 0,
      "isfamily": 0,
      "datetaken": "2010-06-13 06:23:00",
      "datetakengranularity": "0",
      "datetakenunknown": 0,
      "ownername": "osde8info",
      "count_faves": "4",
      "count_comments": "14",
      "url_n": "https://farm5.staticflickr.com/4032/4695568154_106edd9745_n.jpg",
      "height_n": 240,
      "width_n": "320"
    }, {
      "id": "14770594838",
      "owner": "8764442@N07",
      "secret": "ae06c85fa5",
      "server": "3905",
      "farm": 4,
      "title": "android",
      "ispublic": 1,
      "isfriend": 0,
      "isfamily": 0,
      "datetaken": "2014-08-18 11:58:06",
      "datetakengranularity": "0",
      "datetakenunknown": 0,
      "ownername": "osde8info",
      "count_faves": "1",
      "count_comments": "0",
      "url_n": "https://farm4.staticflickr.com/3905/14770594838_ae06c85fa5_n.jpg",
      "height_n": 200,
      "width_n": "320",
      "url_c": "https://farm4.staticflickr.com/3905/14770594838_ae06c85fa5_c.jpg",
      "height_c": 500,
      "width_c": "800"
    }, {
      "id": "4694931387",
      "owner": "8764442@N07",
      "secret": "7faccd35b3",
      "server": "4059",
      "farm": 5,
      "title": "android",
      "ispublic": 1,
      "isfriend": 0,
      "isfamily": 0,
      "datetaken": "2010-06-13 06:20:42",
      "datetakengranularity": "0",
      "datetakenunknown": 0,
      "ownername": "osde8info",
      "count_faves": "0",
      "count_comments": "0",
      "url_n": "https://farm5.staticflickr.com/4059/4694931387_7faccd35b3_n.jpg",
      "height_n": 240,
      "width_n": "320"
    }, {
      "id": "4695566482",
      "owner": "8764442@N07",
      "secret": "30b574af5c",
      "server": "4057",
      "farm": 5,
      "title": "android",
      "ispublic": 1,
      "isfriend": 0,
      "isfamily": 0,
      "datetaken": "2010-06-13 06:10:54",
      "datetakengranularity": "0",
      "datetakenunknown": 0,
      "ownername": "osde8info",
      "count_faves": "0",
      "count_comments": "0",
      "url_n": "https://farm5.staticflickr.com/4057/4695566482_30b574af5c_n.jpg",
      "height_n": 214,
      "width_n": "320"
    }]
  },
  "stat": "ok"
}